[
    {
        "type": "get",
        "url": "assets",
        "title": "Request Specific File By Name.",
        "name": "Show_Asset",
        "group": "Assets",
        "success": {
            "fields": {
                "Success 200": [
                    {
                        "group": "Success 200",
                        "type": "file",
                        "optional": false,
                        "field": "file",
                        "description": "<p>Requested File.</p>"
                    }
                ]
            }
        },
        "error": {
            "fields": {
                "Error 404": [
                    {
                        "group": "Error 404",
                        "optional": false,
                        "field": "NotFound",
                        "description": "<p>When the asset is not found</p>"
                    }
                ]
            },
            "examples": [
                {
                    "title": "NotFound",
                    "content": "HTTP/1.1 404 Not Found\n{\n    \"error\": {\n        \"message_en\": \"Not Found!\",\n        \"message_ar\": \"!غير موجود\"\n    }\n}",
                    "type": "json"
                }
            ]
        },
        "version": "0.0.0",
        "filename": "app/Http/Controllers/api/AssetController.php",
        "groupTitle": "Assets",
        "parameter": {
            "fields": {
                "Parameter": [
                    {
                        "group": "Parameter",
                        "type": "string",
                        "optional": true,
                        "field": "src",
                        "description": "<p>Search By Asset Source</p>"
                    }
                ]
            }
        }
    },
    {
        "type": "delete",
        "url": "users/{id}",
        "title": "Destroy User",
        "permission": [
            {
                "name": "destroy_user"
            }
        ],
        "name": "Delete_User",
        "group": "Users",
        "success": {
            "fields": {
                "Success 200": [
                    {
                        "group": "Success 200",
                        "type": "string",
                        "optional": false,
                        "field": "message",
                        "description": "<p>Success Message</p>"
                    }
                ]
            },
            "examples": [
                {
                    "title": "OK",
                    "content": "HTTP/1.1 200 OK\n{\n    \"message_en\": \"User Deleted Successfully\",\n    \"message_ar\": \"تم حذف الحدث بشكل صحيح\"\n}",
                    "type": "json"
                }
            ]
        },
        "error": {
            "fields": {
                "Error 400": [
                    {
                        "group": "Error 400",
                        "optional": false,
                        "field": "AlreadyDeleted",
                        "description": "<p>When the user is already deleted</p>"
                    }
                ],
                "Error 404": [
                    {
                        "group": "Error 404",
                        "optional": false,
                        "field": "NotFound",
                        "description": "<p>When the user is not found</p>"
                    }
                ]
            },
            "examples": [
                {
                    "title": "AlreadyDeleted",
                    "content": "HTTP/1.1 400 Bad Request\n{\n    \"error\": {\n        \"code\": 1001,\n        \"message_en\": \"Cannot Delete already Deleted Model\"\n        \"message_ar\": \"لا يمكن حذف عنصر محذوف أصلاً\"\n    }\n}",
                    "type": "json"
                },
                {
                    "title": "NotFound",
                    "content": "HTTP/1.1 404 Not Found\n{\n    \"error\": {\n        \"message_en\": \"Not Found!\",\n        \"message_ar\": \"!غير موجود\"\n    }\n}",
                    "type": "json"
                }
            ]
        },
        "version": "0.0.0",
        "filename": "app/Http/Controllers/api/UserController.php",
        "groupTitle": "Users"
    },
    {
        "type": "get",
        "url": "users",
        "title": "Index Users",
        "permission": [
            {
                "name": "index_users"
            }
        ],
        "name": "Index_Users",
        "group": "Users",
        "success": {
            "fields": {
                "Success 200": [
                    {
                        "group": "Success 200",
                        "type": "array",
                        "optional": false,
                        "field": "data",
                        "description": "<p>All Users Data</p>"
                    }
                ]
            },
            "examples": [
                {
                    "title": "OK",
                    "content": "HTTP/1.1 200 OK\n{\n    \"data\": [\n        {\n            \"id\": 3,\n            \"first_name\": \"Fayez\",\n            \"last_name\": \"Ghazzawi\",\n            \"email\": \"fayez.ghazzawi@boilerplate.com\",\n            \"created_at\": \"2020-04-07 07:59:15\",\n            \"updated_at\": \"2020-04-07 07:59:15\",\n            \"roles\": [\n                {\n                    \"id\": 2,\n                    \"name\": \"user\",\n                    \"display_name\": \"User\",\n                    \"description\": \"User Role\",\n                    \"created_at\": \"2020-04-06 11:12:07\",\n                    \"updated_at\": \"2020-04-06 11:12:07\"\n                }\n            ]\n        },\n        {\n            \"id\": 1,\n            \"first_name\": \"admin\",\n            \"last_name\": \"admin\",\n            \"email\": \"admin@boilerplate.com\",\n            \"created_at\": \"2020-04-06 11:12:07\",\n            \"updated_at\": \"2020-04-06 11:28:07\",\n            \"roles\": [\n                {\n                    \"id\": 1,\n                    \"name\": \"admin\",\n                    \"display_name\": \"Administrator\",\n                    \"description\": \"Administrator Role\",\n                    \"created_at\": \"2020-04-06 11:12:07\",\n                    \"updated_at\": \"2020-04-06 11:12:07\"\n                }\n            ]\n        }\n    ],\n    \"pagination\": {\n        \"total_count\": 2,\n        \"total_pages\": 1,\n        \"current_page\": 1,\n        \"limit\": 2\n    }\n}",
                    "type": "json"
                }
            ]
        },
        "version": "0.0.0",
        "filename": "app/Http/Controllers/api/UserController.php",
        "groupTitle": "Users",
        "parameter": {
            "fields": {
                "Parameter": [
                    {
                        "group": "Parameter",
                        "type": "string",
                        "optional": true,
                        "field": "first_name",
                        "description": "<p>Search By User's First Name</p>"
                    },
                    {
                        "group": "Parameter",
                        "type": "string",
                        "optional": true,
                        "field": "last_name",
                        "description": "<p>Search By User's Last Name</p>"
                    },
                    {
                        "group": "Parameter",
                        "type": "string",
                        "optional": true,
                        "field": "email",
                        "description": "<p>Search By User's Email Address</p>"
                    },
                    {
                        "group": "Parameter",
                        "type": "string",
                        "optional": true,
                        "field": "roles_name",
                        "description": "<p>Search By User's Role Name</p>"
                    },
                    {
                        "group": "Parameter",
                        "type": "string",
                        "optional": true,
                        "field": "roles_display_name",
                        "description": "<p>Search By User's Role Display Name</p>"
                    },
                    {
                        "group": "Parameter",
                        "type": "string",
                        "optional": true,
                        "field": "sortBy",
                        "description": "<p>Property to Sort By</p>"
                    },
                    {
                        "group": "Parameter",
                        "type": "string",
                        "allowedValues": [
                            "\"asc\"",
                            "\"desc\""
                        ],
                        "optional": true,
                        "field": "sortDir",
                        "description": "<p>Sort Direction</p>"
                    }
                ]
            }
        }
    },
    {
        "type": "get",
        "url": "users/{id}",
        "title": "Show User",
        "permission": [
            {
                "name": "show_user"
            }
        ],
        "name": "Show_User",
        "group": "Users",
        "success": {
            "fields": {
                "Success 200": [
                    {
                        "group": "Success 200",
                        "type": "json",
                        "optional": false,
                        "field": "user",
                        "description": "<p>Requested User</p>"
                    }
                ]
            },
            "examples": [
                {
                    "title": "OK",
                    "content": "HTTP/1.1 200 OK\n{\n    \"id\": 3,\n    \"first_name\": \"Fayez\",\n    \"last_name\": \"Ghazzawi\",\n    \"email\": \"fayez.ghazzawi@boilerplate.com\",\n    \"created_at\": \"2020-04-07 07:59:15\",\n    \"updated_at\": \"2020-04-07 07:59:15\",\n    \"roles\": [\n        {\n            \"id\": 2,\n            \"name\": \"user\",\n            \"display_name\": \"User\",\n            \"description\": \"User Role\",\n            \"created_at\": \"2020-04-06 11:12:07\",\n            \"updated_at\": \"2020-04-06 11:12:07\"\n        }\n    ]\n}",
                    "type": "json"
                }
            ]
        },
        "error": {
            "fields": {
                "Error 404": [
                    {
                        "group": "Error 404",
                        "optional": false,
                        "field": "NotFound",
                        "description": "<p>When the user is not found</p>"
                    }
                ]
            },
            "examples": [
                {
                    "title": "NotFound",
                    "content": "HTTP/1.1 404 Not Found\n{\n    \"error\": {\n        \"message_en\": \"Not Found!\",\n        \"message_ar\": \"!غير موجود\"\n    }\n}",
                    "type": "json"
                }
            ]
        },
        "version": "0.0.0",
        "filename": "app/Http/Controllers/api/UserController.php",
        "groupTitle": "Users"
    },
    {
        "type": "post",
        "url": "users",
        "title": "Store User",
        "permission": [
            {
                "name": "store_user"
            }
        ],
        "name": "Store_User",
        "group": "Users",
        "success": {
            "fields": {
                "Success 200": [
                    {
                        "group": "Success 200",
                        "type": "json",
                        "optional": false,
                        "field": "user",
                        "description": "<p>Stored User</p>"
                    }
                ]
            },
            "examples": [
                {
                    "title": "OK",
                    "content": "HTTP/1.1 200 OK\n{\n    \"id\": 3,\n    \"first_name\": \"Fayez\",\n    \"last_name\": \"Ghazzawi\",\n    \"email\": \"fayez.ghazzawi@boilerplate.com\",\n    \"created_at\": \"2020-04-07 07:59:15\",\n    \"updated_at\": \"2020-04-07 07:59:15\",\n    \"roles\": [\n        {\n            \"id\": 2,\n            \"name\": \"user\",\n            \"display_name\": \"User\",\n            \"description\": \"User Role\",\n            \"created_at\": \"2020-04-06 11:12:07\",\n            \"updated_at\": \"2020-04-06 11:12:07\"\n        }\n    ]\n}",
                    "type": "json"
                }
            ]
        },
        "version": "0.0.0",
        "filename": "app/Http/Controllers/api/UserController.php",
        "groupTitle": "Users",
        "parameter": {
            "fields": {
                "Parameter": [
                    {
                        "group": "Parameter",
                        "type": "string",
                        "optional": false,
                        "field": "first_name",
                        "description": "<p>User's First Name</p>"
                    },
                    {
                        "group": "Parameter",
                        "type": "string",
                        "optional": false,
                        "field": "last_name",
                        "description": "<p>User's Last Name</p>"
                    },
                    {
                        "group": "Parameter",
                        "type": "email",
                        "optional": false,
                        "field": "email",
                        "description": "<p>User's Email Address</p>"
                    },
                    {
                        "group": "Parameter",
                        "type": "string",
                        "optional": false,
                        "field": "password",
                        "description": "<p>User's Password</p>"
                    },
                    {
                        "group": "Parameter",
                        "type": "array",
                        "optional": false,
                        "field": "roles",
                        "description": "<p>User's Array of Roles IDs</p>"
                    }
                ]
            }
        }
    },
    {
        "type": "put",
        "url": "users/{id}",
        "title": "Update User",
        "permission": [
            {
                "name": "update_user"
            }
        ],
        "name": "Update_User",
        "group": "Users",
        "success": {
            "fields": {
                "Success 200": [
                    {
                        "group": "Success 200",
                        "type": "json",
                        "optional": false,
                        "field": "user",
                        "description": "<p>Updated User</p>"
                    }
                ]
            },
            "examples": [
                {
                    "title": "OK",
                    "content": "HTTP/1.1 200 OK\n{\n    \"id\": 3,\n    \"first_name\": \"Fayez\",\n    \"last_name\": \"Ghazzawi\",\n    \"email\": \"fayez.ghazzawi@boilerplate.com\",\n    \"created_at\": \"2020-04-07 07:59:15\",\n    \"updated_at\": \"2020-04-07 07:59:15\",\n    \"roles\": [\n        {\n            \"id\": 2,\n            \"name\": \"user\",\n            \"display_name\": \"User\",\n            \"description\": \"User Role\",\n            \"created_at\": \"2020-04-06 11:12:07\",\n            \"updated_at\": \"2020-04-06 11:12:07\"\n        }\n    ]\n}",
                    "type": "json"
                }
            ]
        },
        "version": "0.0.0",
        "filename": "app/Http/Controllers/api/UserController.php",
        "groupTitle": "Users",
        "parameter": {
            "fields": {
                "Parameter": [
                    {
                        "group": "Parameter",
                        "type": "string",
                        "optional": true,
                        "field": "first_name",
                        "description": "<p>User's New First Name</p>"
                    },
                    {
                        "group": "Parameter",
                        "type": "string",
                        "optional": true,
                        "field": "last_name",
                        "description": "<p>User's New Last Name</p>"
                    },
                    {
                        "group": "Parameter",
                        "type": "email",
                        "optional": true,
                        "field": "email",
                        "description": "<p>User's New Email Address</p>"
                    },
                    {
                        "group": "Parameter",
                        "type": "string",
                        "optional": true,
                        "field": "password",
                        "description": "<p>User's New Password</p>"
                    },
                    {
                        "group": "Parameter",
                        "type": "array",
                        "optional": true,
                        "field": "roles",
                        "description": "<p>User's Array of New Roles IDs</p>"
                    }
                ]
            }
        }
    }
]
